<svg class="logo" xmlns="http://www.w3.org/2000/svg" viewBox="0 0 237.75 52.11">
  <g class="logo-icon">
    <rect class="logo-icon-bg" y="11.15" width="52.01" height="40.97" rx="4" style="fill:#FFD23A" />
    <path
      d="M19.38,34.6a3.46,3.46,0,0,1,2.67-1.16h35.3A2,2,0,0,0,58.63,33a1.87,1.87,0,0,0,.58-1.39V14.86a3.28,3.28,0,0,0-1.16-2.55,3.31,3.31,0,0,0-2.55-1.17H51.78a3.56,3.56,0,0,1-3.71-3.71V3.71A3.31,3.31,0,0,0,46.9,1.16,3.28,3.28,0,0,0,44.35,0H10.91A3.5,3.5,0,0,0,8.35,1,3.46,3.46,0,0,0,7.19,3.71V14.86h0V48.51a3.6,3.6,0,0,1-3.6,3.6h51.9a3.52,3.52,0,0,0,2.56-1,3.48,3.48,0,0,0,1.16-2.67V44.68A4,4,0,0,0,55.49,41H22.05a3.66,3.66,0,0,1-2.67-1,3.59,3.59,0,0,1-1-2.67v-.1A3.48,3.48,0,0,1,19.38,34.6Zm25-23.45a3.27,3.27,0,0,1,2.55,1.16,3.3,3.3,0,0,1,1.16,2.55v3.72a3.43,3.43,0,0,1-1.16,2.67,3.48,3.48,0,0,1-2.55,1H22.05a3.56,3.56,0,0,1-3.71-3.71V14.86a3.48,3.48,0,0,1,1-2.55,3.43,3.43,0,0,1,2.67-1.16Z"
      style="fill:#331e44" />
  </g>
  <g class="logo-text">
  <path
    d="M92.39,20.6h-.07a10,10,0,0,0-9.86,10.07c0,5.74,4.05,10.08,10.29,10.08,4.71,0,7.19-1.93,8.69-4.13l-4.13-2.73c-.83,1.53-2,2.37-4.41,2.37a5,5,0,0,1-5.15-3.94h14.42a15.65,15.65,0,0,0,.11-2.05V30A9.64,9.64,0,0,0,92.39,20.6Zm-4.71,8.18a4.72,4.72,0,0,1,4.85-4.09,4.63,4.63,0,0,1,4.68,4.09Z"
    style="fill:#331e44" />
  <path
    d="M115,20.56a8,8,0,0,0-5.8,2.26V21h-5.11V40.27h5.4V28.88a3.7,3.7,0,0,1,3.87-3.5,2.9,2.9,0,0,1,.51,0,3.57,3.57,0,0,1,3.29,3.83V40.28h5.37V28.16C122.51,23.67,119.59,20.56,115,20.56Z"
    style="fill:#331e44" />
  <path
    d="M134.37,35.93c-2.7,0-4.82-2-4.82-5.26s2.12-5.26,4.82-5.26a4.34,4.34,0,0,1,4.34,3.4l4.82-1.9a9.44,9.44,0,0,0-9.27-6.31h-.43a9.92,9.92,0,0,0-9.72,10.11v.39a9.91,9.91,0,0,0,10.15,9.65c5.33,0,8.54-3.44,9.38-6.25l-4.82-1.93A4.43,4.43,0,0,1,134.37,35.93Z"
    style="fill:#331e44" />
  <path
    d="M155,20.6c-6.09,0-10.4,4.31-10.4,10.07S148.9,40.75,155,40.75s10.4-4.35,10.4-10.08S161.05,20.6,155,20.6Zm0,15.33h-.47A4.9,4.9,0,0,1,150,30.67c0-3.1,2-5.25,5-5.25s5,2.15,5,5.22S158,35.93,155,35.93Z"
    style="fill:#331e44" />
  <path
    d="M182.09,22.72a8,8,0,0,0-5.66-2.12c-5.51,0-9.42,4.31-9.42,10.08s4,10.07,9.56,10.07a7.83,7.83,0,0,0,5.92-2.44v2h5V13.59h-5.4Zm.21,8c0,3.13-2,5.29-5,5.29H177a5,5,0,0,1-4.63-5.29c0-.1,0-.2,0-.3a5,5,0,0,1,5-5c2.95,0,5,2.2,5,5.33Z"
    style="fill:#331e44" />
  <path
    d="M192.38,11.36h-.11a3.43,3.43,0,0,0-3.43,3.43V15a3.41,3.41,0,0,0,3.54,3.28h.18a3.38,3.38,0,0,0,3.32-3.44v-.13A3.41,3.41,0,0,0,192.38,11.36Z"
    style="fill:#331e44" />
  <path
    d="M212.2,23.37a7.59,7.59,0,0,0-5.91-2.44c-5.55,0-9.57,4-9.57,9.74s4,10.08,9.57,10.08a7.44,7.44,0,0,0,5.91-2.59v2.12h5V21h-5Zm-.19,7.3c0,3.14-2,5.3-5,5.3h-.34a5,5,0,0,1-4.62-5.29c0-.1,0-.2,0-.3a5,5,0,0,1,5-5c3,0,5,2.19,5,5.33Z"
    style="fill:#331e44" />
  <rect x="189.64" y="21.04" width="5.4" height="19.24" style="fill:#331e44" />
  <path
    d="M230.23,20.56a8,8,0,0,0-5.8,2.26V21h-5.11V40.27h5.4V28.88h0a3.69,3.69,0,0,1,3.87-3.5,2.8,2.8,0,0,1,.5,0,3.57,3.57,0,0,1,3.3,3.83V40.28h5.36V28.16C237.75,23.67,234.83,20.56,230.23,20.56Z"
    style="fill:#331e44" />
  </g>
</svg>
