{
    "key": "group_627b715454c2d",
    "title": "Template — Builder",
    "fields": [
        {
            "key": "field_627b7161b70a7",
            "label": "Builder",
            "name": "builder",
            "type": "flexible_content",
            "instructions": "",
            "required": 0,
            "conditional_logic": 0,
            "wrapper": {
                "width": "",
                "class": "",
                "id": ""
            },
            "layouts": {
                "layout_627bcba9d4855": {
                    "key": "layout_627bcba9d4855",
                    "name": "hero",
                    "label": "Hero",
                    "display": "block",
                    "sub_fields": [
                        {
                            "key": "field_627bcbb6d4856",
                            "label": "Heading",
                            "name": "heading",
                            "type": "text",
                            "instructions": "",
                            "required": 0,
                            "conditional_logic": 0,
                            "wrapper": {
                                "width": "",
                                "class": "",
                                "id": ""
                            },
                            "default_value": "",
                            "placeholder": "e.g. Microsoft 365, sorted.",
                            "prepend": "",
                            "append": "",
                            "maxlength": ""
                        },
                        {
                            "key": "field_627bcbbbd4857",
                            "label": "Text",
                            "name": "text",
                            "type": "textarea",
                            "instructions": "",
                            "required": 0,
                            "conditional_logic": 0,
                            "wrapper": {
                                "width": "",
                                "class": "",
                                "id": ""
                            },
                            "default_value": "",
                            "placeholder": "e.g. Manage and simplify access to your information safely and securely using our products built for Microsoft 365.",
                            "maxlength": "",
                            "rows": 3,
                            "new_lines": "",
                            "acfe_textarea_code": 0
                        }
                    ],
                    "min": "",
                    "max": ""
                },
                "layout_627b71669f31d": {
                    "key": "layout_627b71669f31d",
                    "name": "page_header",
                    "label": "Page Header",
                    "display": "block",
                    "sub_fields": [
                        {
                            "key": "field_627b75e3b70a8",
                            "label": "Heading",
                            "name": "heading",
                            "type": "text",
                            "instructions": "",
                            "required": 1,
                            "conditional_logic": 0,
                            "wrapper": {
                                "width": "",
                                "class": "",
                                "id": ""
                            },
                            "default_value": "",
                            "placeholder": "",
                            "prepend": "",
                            "append": "",
                            "maxlength": ""
                        },
                        {
                            "key": "field_627b75e8b70a9",
                            "label": "Text",
                            "name": "text",
                            "type": "textarea",
                            "instructions": "",
                            "required": 0,
                            "conditional_logic": 0,
                            "wrapper": {
                                "width": "",
                                "class": "",
                                "id": ""
                            },
                            "default_value": "",
                            "placeholder": "",
                            "maxlength": "",
                            "rows": 3,
                            "new_lines": ""
                        },
                        {
                            "key": "field_627b76dbb70aa",
                            "label": "Image",
                            "name": "image",
                            "type": "image",
                            "instructions": "<span style=\"color:orange;\">*<\/span> Can be left empty to show just the heading and text.",
                            "required": 0,
                            "conditional_logic": 0,
                            "wrapper": {
                                "width": "",
                                "class": "",
                                "id": ""
                            },
                            "return_format": "array",
                            "preview_size": "medium",
                            "library": "all",
                            "min_width": "",
                            "min_height": "",
                            "min_size": "",
                            "max_width": "",
                            "max_height": "",
                            "max_size": "",
                            "mime_types": ""
                        }
                    ],
                    "min": "",
                    "max": ""
                },
                "layout_627b7731b70ab": {
                    "key": "layout_627b7731b70ab",
                    "name": "logo_grid",
                    "label": "Logo Grid",
                    "display": "block",
                    "sub_fields": [
                        {
                            "key": "field_627b77b7b70ac",
                            "label": "Heading",
                            "name": "heading",
                            "type": "text",
                            "instructions": "",
                            "required": 0,
                            "conditional_logic": 0,
                            "wrapper": {
                                "width": "",
                                "class": "",
                                "id": ""
                            },
                            "default_value": "",
                            "placeholder": "",
                            "prepend": "",
                            "append": "",
                            "maxlength": ""
                        },
                        {
                            "key": "field_627b77bcb70ad",
                            "label": "Logos",
                            "name": "logos",
                            "type": "gallery",
                            "instructions": "",
                            "required": 1,
                            "conditional_logic": 0,
                            "wrapper": {
                                "width": "",
                                "class": "",
                                "id": ""
                            },
                            "return_format": "array",
                            "preview_size": "medium",
                            "insert": "append",
                            "library": "all",
                            "min": "",
                            "max": "",
                            "min_width": "",
                            "min_height": "",
                            "min_size": "",
                            "max_width": "",
                            "max_height": "",
                            "max_size": "",
                            "mime_types": ""
                        }
                    ],
                    "min": "",
                    "max": ""
                },
                "layout_627b7838b70ae": {
                    "key": "layout_627b7838b70ae",
                    "name": "services_slides",
                    "label": "Services Slides",
                    "display": "block",
                    "sub_fields": [
                        {
                            "key": "field_627b7877b70af",
                            "label": "Heading",
                            "name": "heading",
                            "type": "text",
                            "instructions": "",
                            "required": 0,
                            "conditional_logic": 0,
                            "wrapper": {
                                "width": "",
                                "class": "",
                                "id": ""
                            },
                            "default_value": "",
                            "placeholder": "e.g. Services",
                            "prepend": "",
                            "append": "",
                            "maxlength": ""
                        },
                        {
                            "key": "field_627b78d5b70b0",
                            "label": "Slides",
                            "name": "slides",
                            "type": "repeater",
                            "instructions": "",
                            "required": 1,
                            "conditional_logic": 0,
                            "wrapper": {
                                "width": "",
                                "class": "",
                                "id": ""
                            },
                            "collapsed": "",
                            "min": 0,
                            "max": 4,
                            "layout": "block",
                            "button_label": "Add Service Slide",
                            "sub_fields": [
                                {
                                    "key": "field_627b7940b70b1",
                                    "label": "Heading",
                                    "name": "heading",
                                    "type": "text",
                                    "instructions": "",
                                    "required": 1,
                                    "conditional_logic": 0,
                                    "wrapper": {
                                        "width": "",
                                        "class": "",
                                        "id": ""
                                    },
                                    "default_value": "",
                                    "placeholder": "",
                                    "prepend": "",
                                    "append": "",
                                    "maxlength": ""
                                },
                                {
                                    "key": "field_627b794cb70b2",
                                    "label": "Text",
                                    "name": "text",
                                    "type": "textarea",
                                    "instructions": "",
                                    "required": 1,
                                    "conditional_logic": 0,
                                    "wrapper": {
                                        "width": "",
                                        "class": "",
                                        "id": ""
                                    },
                                    "default_value": "",
                                    "placeholder": "",
                                    "maxlength": "",
                                    "rows": 6,
                                    "new_lines": "wpautop"
                                },
                                {
                                    "key": "field_627b7960b70b3",
                                    "label": "Button",
                                    "name": "button",
                                    "type": "link",
                                    "instructions": "",
                                    "required": 0,
                                    "conditional_logic": 0,
                                    "wrapper": {
                                        "width": "",
                                        "class": "",
                                        "id": ""
                                    },
                                    "return_format": "array"
                                }
                            ]
                        }
                    ],
                    "min": "",
                    "max": ""
                },
                "layout_627b79c09a39f": {
                    "key": "layout_627b79c09a39f",
                    "name": "testimonials",
                    "label": "Testimonials",
                    "display": "block",
                    "sub_fields": [
                        {
                            "key": "field_627b79f39a3a0",
                            "label": "Heading",
                            "name": "heading",
                            "type": "text",
                            "instructions": "",
                            "required": 0,
                            "conditional_logic": 0,
                            "wrapper": {
                                "width": "",
                                "class": "",
                                "id": ""
                            },
                            "default_value": "",
                            "placeholder": "e.g. What our clients say about us",
                            "prepend": "",
                            "append": "",
                            "maxlength": ""
                        },
                        {
                            "key": "field_627b7a009a3a1",
                            "label": "Testimonials",
                            "name": "testimonials",
                            "type": "repeater",
                            "instructions": "",
                            "required": 0,
                            "conditional_logic": 0,
                            "wrapper": {
                                "width": "",
                                "class": "",
                                "id": ""
                            },
                            "collapsed": "field_627b7a349a3a3",
                            "min": 0,
                            "max": 0,
                            "layout": "block",
                            "button_label": "Add Testimonial",
                            "sub_fields": [
                                {
                                    "key": "field_627b7a239a3a2",
                                    "label": "Image",
                                    "name": "image",
                                    "type": "image",
                                    "instructions": "",
                                    "required": 0,
                                    "conditional_logic": 0,
                                    "wrapper": {
                                        "width": "50",
                                        "class": "",
                                        "id": ""
                                    },
                                    "return_format": "array",
                                    "preview_size": "medium",
                                    "library": "all",
                                    "min_width": "",
                                    "min_height": "",
                                    "min_size": "",
                                    "max_width": "",
                                    "max_height": "",
                                    "max_size": "",
                                    "mime_types": ""
                                },
                                {
                                    "key": "field_627b7a349a3a3",
                                    "label": "Author",
                                    "name": "author",
                                    "type": "group",
                                    "instructions": "",
                                    "required": 0,
                                    "conditional_logic": 0,
                                    "wrapper": {
                                        "width": "50",
                                        "class": "",
                                        "id": ""
                                    },
                                    "layout": "block",
                                    "sub_fields": [
                                        {
                                            "key": "field_627b7a399a3a4",
                                            "label": "Name",
                                            "name": "name",
                                            "type": "text",
                                            "instructions": "",
                                            "required": 0,
                                            "conditional_logic": 0,
                                            "wrapper": {
                                                "width": "",
                                                "class": "",
                                                "id": ""
                                            },
                                            "default_value": "",
                                            "placeholder": "e.g. Vance Smith",
                                            "prepend": "",
                                            "append": "",
                                            "maxlength": ""
                                        },
                                        {
                                            "key": "field_627b7a3c9a3a5",
                                            "label": "Company \/ Title",
                                            "name": "title",
                                            "type": "text",
                                            "instructions": "",
                                            "required": 0,
                                            "conditional_logic": 0,
                                            "wrapper": {
                                                "width": "",
                                                "class": "",
                                                "id": ""
                                            },
                                            "default_value": "",
                                            "placeholder": "e.g. Guidestone",
                                            "prepend": "",
                                            "append": "",
                                            "maxlength": ""
                                        }
                                    ]
                                },
                                {
                                    "key": "field_627b7a6a9a3a6",
                                    "label": "Quote",
                                    "name": "quote",
                                    "type": "textarea",
                                    "instructions": "",
                                    "required": 0,
                                    "conditional_logic": 0,
                                    "wrapper": {
                                        "width": "",
                                        "class": "",
                                        "id": ""
                                    },
                                    "default_value": "",
                                    "placeholder": "",
                                    "maxlength": "",
                                    "rows": 3,
                                    "new_lines": ""
                                }
                            ]
                        }
                    ],
                    "min": "",
                    "max": ""
                },
                "layout_627b7aa59a3a7": {
                    "key": "layout_627b7aa59a3a7",
                    "name": "form",
                    "label": "Form",
                    "display": "block",
                    "sub_fields": [
                        {
                            "key": "field_627b7aaf9a3a8",
                            "label": "Heading",
                            "name": "heading",
                            "type": "text",
                            "instructions": "",
                            "required": 0,
                            "conditional_logic": 0,
                            "wrapper": {
                                "width": "50",
                                "class": "",
                                "id": ""
                            },
                            "default_value": "",
                            "placeholder": "",
                            "prepend": "",
                            "append": "",
                            "maxlength": ""
                        },
                        {
                            "key": "field_627b7ab89a3a9",
                            "label": "Text",
                            "name": "text",
                            "type": "textarea",
                            "instructions": "",
                            "required": 0,
                            "conditional_logic": 0,
                            "wrapper": {
                                "width": "50",
                                "class": "",
                                "id": ""
                            },
                            "default_value": "",
                            "placeholder": "",
                            "maxlength": "",
                            "rows": 4,
                            "new_lines": ""
                        },
                        {
                            "key": "field_627b7ad29a3aa",
                            "label": "Form",
                            "name": "form",
                            "type": "post_object",
                            "instructions": "",
                            "required": 0,
                            "conditional_logic": 0,
                            "wrapper": {
                                "width": "",
                                "class": "",
                                "id": ""
                            },
                            "post_type": [
                                "forms"
                            ],
                            "taxonomy": "",
                            "allow_null": 0,
                            "multiple": 0,
                            "return_format": "id",
                            "ui": 1
                        }
                    ],
                    "min": "",
                    "max": ""
                },
                "layout_627b7b3a9a3ab": {
                    "key": "layout_627b7b3a9a3ab",
                    "name": "text_blocks",
                    "label": "Text Blocks",
                    "display": "block",
                    "sub_fields": [
                        {
                            "key": "field_627b7b4f9a3ac",
                            "label": "Heading",
                            "name": "heading",
                            "type": "text",
                            "instructions": "",
                            "required": 0,
                            "conditional_logic": 0,
                            "wrapper": {
                                "width": "",
                                "class": "",
                                "id": ""
                            },
                            "default_value": "",
                            "placeholder": "e.g. How we help?",
                            "prepend": "",
                            "append": "",
                            "maxlength": ""
                        },
                        {
                            "key": "field_627b7b699a3ad",
                            "label": "Items",
                            "name": "items",
                            "type": "repeater",
                            "instructions": "",
                            "required": 0,
                            "conditional_logic": 0,
                            "wrapper": {
                                "width": "",
                                "class": "",
                                "id": ""
                            },
                            "collapsed": "field_627b7b7e9a3ae",
                            "min": 0,
                            "max": 0,
                            "layout": "block",
                            "button_label": "Add Text Block",
                            "sub_fields": [
                                {
                                    "key": "field_627b7b7e9a3ae",
                                    "label": "Heading",
                                    "name": "heading",
                                    "type": "text",
                                    "instructions": "",
                                    "required": 0,
                                    "conditional_logic": 0,
                                    "wrapper": {
                                        "width": "",
                                        "class": "",
                                        "id": ""
                                    },
                                    "default_value": "",
                                    "placeholder": "",
                                    "prepend": "",
                                    "append": "",
                                    "maxlength": ""
                                },
                                {
                                    "key": "field_627b7b829a3af",
                                    "label": "Text",
                                    "name": "text",
                                    "type": "textarea",
                                    "instructions": "",
                                    "required": 0,
                                    "conditional_logic": 0,
                                    "wrapper": {
                                        "width": "",
                                        "class": "",
                                        "id": ""
                                    },
                                    "default_value": "",
                                    "placeholder": "",
                                    "maxlength": "",
                                    "rows": 2,
                                    "new_lines": ""
                                }
                            ]
                        }
                    ],
                    "min": "",
                    "max": ""
                },
                "layout_627b7ca6bb472": {
                    "key": "layout_627b7ca6bb472",
                    "name": "solutions",
                    "label": "Solutions",
                    "display": "block",
                    "sub_fields": [
                        {
                            "key": "field_627b7cdcbb476",
                            "label": "Image",
                            "name": "image",
                            "type": "image",
                            "instructions": "",
                            "required": 0,
                            "conditional_logic": 0,
                            "wrapper": {
                                "width": "33.33",
                                "class": "",
                                "id": ""
                            },
                            "return_format": "array",
                            "preview_size": "medium",
                            "library": "all",
                            "min_width": "",
                            "min_height": "",
                            "min_size": "",
                            "max_width": "",
                            "max_height": "",
                            "max_size": "",
                            "mime_types": ""
                        },
                        {
                            "key": "field_627b7cfbbb477",
                            "label": "Content",
                            "name": "content",
                            "type": "group",
                            "instructions": "",
                            "required": 0,
                            "conditional_logic": 0,
                            "wrapper": {
                                "width": "66.66",
                                "class": "",
                                "id": ""
                            },
                            "layout": "block",
                            "sub_fields": [
                                {
                                    "key": "field_627b7d01bb478",
                                    "label": "Heading",
                                    "name": "heading",
                                    "type": "text",
                                    "instructions": "",
                                    "required": 0,
                                    "conditional_logic": 0,
                                    "wrapper": {
                                        "width": "",
                                        "class": "",
                                        "id": ""
                                    },
                                    "default_value": "",
                                    "placeholder": "",
                                    "prepend": "",
                                    "append": "",
                                    "maxlength": ""
                                },
                                {
                                    "key": "field_627b7d05bb479",
                                    "label": "Subheading",
                                    "name": "subheading",
                                    "type": "textarea",
                                    "instructions": "",
                                    "required": 0,
                                    "conditional_logic": 0,
                                    "wrapper": {
                                        "width": "",
                                        "class": "",
                                        "id": ""
                                    },
                                    "default_value": "",
                                    "placeholder": "",
                                    "maxlength": "",
                                    "rows": 2,
                                    "new_lines": ""
                                },
                                {
                                    "key": "field_627b7d08bb47a",
                                    "label": "Text",
                                    "name": "text",
                                    "type": "textarea",
                                    "instructions": "",
                                    "required": 0,
                                    "conditional_logic": 0,
                                    "wrapper": {
                                        "width": "",
                                        "class": "",
                                        "id": ""
                                    },
                                    "default_value": "",
                                    "placeholder": "",
                                    "maxlength": "",
                                    "rows": 6,
                                    "new_lines": ""
                                }
                            ]
                        },
                        {
                            "key": "field_627b7d31bb47b",
                            "label": "Solutions",
                            "name": "solutions",
                            "type": "repeater",
                            "instructions": "",
                            "required": 0,
                            "conditional_logic": 0,
                            "wrapper": {
                                "width": "",
                                "class": "",
                                "id": ""
                            },
                            "collapsed": "field_627b7d4bbb47c",
                            "min": 0,
                            "max": 0,
                            "layout": "block",
                            "button_label": "Add Solution",
                            "sub_fields": [
                                {
                                    "key": "field_627b7d4bbb47c",
                                    "label": "Heading",
                                    "name": "heading",
                                    "type": "text",
                                    "instructions": "",
                                    "required": 0,
                                    "conditional_logic": 0,
                                    "wrapper": {
                                        "width": "",
                                        "class": "",
                                        "id": ""
                                    },
                                    "default_value": "",
                                    "placeholder": "",
                                    "prepend": "",
                                    "append": "",
                                    "maxlength": ""
                                },
                                {
                                    "key": "field_627b7d51bb47d",
                                    "label": "Text",
                                    "name": "text",
                                    "type": "textarea",
                                    "instructions": "",
                                    "required": 0,
                                    "conditional_logic": 0,
                                    "wrapper": {
                                        "width": "",
                                        "class": "",
                                        "id": ""
                                    },
                                    "default_value": "",
                                    "placeholder": "",
                                    "maxlength": "",
                                    "rows": 2,
                                    "new_lines": ""
                                },
                                {
                                    "key": "field_627b7de1bb47e",
                                    "label": "Related Product",
                                    "name": "related_product",
                                    "type": "post_object",
                                    "instructions": "",
                                    "required": 0,
                                    "conditional_logic": 0,
                                    "wrapper": {
                                        "width": "",
                                        "class": "",
                                        "id": ""
                                    },
                                    "post_type": [
                                        "products"
                                    ],
                                    "taxonomy": "",
                                    "allow_null": 0,
                                    "multiple": 0,
                                    "return_format": "id",
                                    "ui": 1
                                }
                            ]
                        }
                    ],
                    "min": "",
                    "max": ""
                },
                "layout_627b8037db197": {
                    "key": "layout_627b8037db197",
                    "name": "team",
                    "label": "Team",
                    "display": "block",
                    "sub_fields": [
                        {
                            "key": "field_627b804bdb198",
                            "label": "Heading",
                            "name": "heading",
                            "type": "text",
                            "instructions": "",
                            "required": 0,
                            "conditional_logic": 0,
                            "wrapper": {
                                "width": "",
                                "class": "",
                                "id": ""
                            },
                            "default_value": "",
                            "placeholder": "e.g. Management team",
                            "prepend": "",
                            "append": "",
                            "maxlength": ""
                        },
                        {
                            "key": "field_627b8081db199",
                            "label": "Members",
                            "name": "members",
                            "type": "repeater",
                            "instructions": "",
                            "required": 0,
                            "conditional_logic": 0,
                            "wrapper": {
                                "width": "",
                                "class": "",
                                "id": ""
                            },
                            "collapsed": "",
                            "min": 0,
                            "max": 0,
                            "layout": "block",
                            "button_label": "Add Team Member",
                            "sub_fields": [
                                {
                                    "key": "field_627b8089db19a",
                                    "label": "Image",
                                    "name": "image",
                                    "type": "image",
                                    "instructions": "",
                                    "required": 0,
                                    "conditional_logic": 0,
                                    "wrapper": {
                                        "width": "",
                                        "class": "",
                                        "id": ""
                                    },
                                    "return_format": "array",
                                    "preview_size": "medium",
                                    "library": "all",
                                    "min_width": "",
                                    "min_height": "",
                                    "min_size": "",
                                    "max_width": "",
                                    "max_height": "",
                                    "max_size": "",
                                    "mime_types": ""
                                },
                                {
                                    "key": "field_627b808fdb19b",
                                    "label": "Name",
                                    "name": "name",
                                    "type": "text",
                                    "instructions": "",
                                    "required": 0,
                                    "conditional_logic": 0,
                                    "wrapper": {
                                        "width": "",
                                        "class": "",
                                        "id": ""
                                    },
                                    "default_value": "",
                                    "placeholder": "",
                                    "prepend": "",
                                    "append": "",
                                    "maxlength": ""
                                },
                                {
                                    "key": "field_627b80bddb19c",
                                    "label": "Job Title",
                                    "name": "job_title",
                                    "type": "text",
                                    "instructions": "",
                                    "required": 0,
                                    "conditional_logic": 0,
                                    "wrapper": {
                                        "width": "",
                                        "class": "",
                                        "id": ""
                                    },
                                    "default_value": "",
                                    "placeholder": "",
                                    "prepend": "",
                                    "append": "",
                                    "maxlength": ""
                                },
                                {
                                    "key": "field_627b80d9db19d",
                                    "label": "LinkedIn",
                                    "name": "linkedin_url",
                                    "type": "url",
                                    "instructions": "",
                                    "required": 0,
                                    "conditional_logic": 0,
                                    "wrapper": {
                                        "width": "",
                                        "class": "",
                                        "id": ""
                                    },
                                    "default_value": "",
                                    "placeholder": ""
                                }
                            ]
                        }
                    ],
                    "min": "",
                    "max": ""
                },
                "layout_627b818bce1ce": {
                    "key": "layout_627b818bce1ce",
                    "name": "products_list",
                    "label": "Products List",
                    "display": "block",
                    "sub_fields": [
                        {
                            "key": "field_627b8191ce1cf",
                            "label": "Heading",
                            "name": "heading",
                            "type": "text",
                            "instructions": "",
                            "required": 0,
                            "conditional_logic": 0,
                            "wrapper": {
                                "width": "",
                                "class": "",
                                "id": ""
                            },
                            "default_value": "",
                            "placeholder": "e.g. Products",
                            "prepend": "",
                            "append": "",
                            "maxlength": ""
                        },
                        {
                            "key": "field_627b81a9ce1d0",
                            "label": "Products",
                            "name": "products",
                            "type": "repeater",
                            "instructions": "",
                            "required": 0,
                            "conditional_logic": 0,
                            "wrapper": {
                                "width": "",
                                "class": "",
                                "id": ""
                            },
                            "collapsed": "",
                            "min": 0,
                            "max": 0,
                            "layout": "block",
                            "button_label": "Add Product",
                            "sub_fields": [
                                {
                                    "key": "field_627b81bcce1d1",
                                    "label": "Product",
                                    "name": "product",
                                    "type": "post_object",
                                    "instructions": "",
                                    "required": 0,
                                    "conditional_logic": 0,
                                    "wrapper": {
                                        "width": "",
                                        "class": "",
                                        "id": ""
                                    },
                                    "post_type": [
                                        "products"
                                    ],
                                    "taxonomy": "",
                                    "allow_null": 0,
                                    "multiple": 0,
                                    "return_format": "object",
                                    "ui": 1
                                }
                            ]
                        }
                    ],
                    "min": "",
                    "max": ""
                },
                "layout_627bbf9ef6fa0": {
                    "key": "layout_627bbf9ef6fa0",
                    "name": "accordion",
                    "label": "Accordion",
                    "display": "block",
                    "sub_fields": [
                        {
                            "key": "field_627bbfa6f6fa1",
                            "label": "Heading",
                            "name": "heading",
                            "type": "text",
                            "instructions": "",
                            "required": 0,
                            "conditional_logic": 0,
                            "wrapper": {
                                "width": "",
                                "class": "",
                                "id": ""
                            },
                            "default_value": "",
                            "placeholder": "e.g. Want to learn more?",
                            "prepend": "",
                            "append": "",
                            "maxlength": ""
                        },
                        {
                            "key": "field_627bbfc0f6fa2",
                            "label": "Items",
                            "name": "items",
                            "type": "repeater",
                            "instructions": "",
                            "required": 0,
                            "conditional_logic": 0,
                            "wrapper": {
                                "width": "",
                                "class": "",
                                "id": ""
                            },
                            "collapsed": "field_627bbfdaf6fa3",
                            "min": 0,
                            "max": 0,
                            "layout": "block",
                            "button_label": "Add Accordion Item",
                            "sub_fields": [
                                {
                                    "key": "field_627bbfdaf6fa3",
                                    "label": "Title",
                                    "name": "title",
                                    "type": "text",
                                    "instructions": "",
                                    "required": 0,
                                    "conditional_logic": 0,
                                    "wrapper": {
                                        "width": "",
                                        "class": "",
                                        "id": ""
                                    },
                                    "default_value": "",
                                    "placeholder": "",
                                    "prepend": "",
                                    "append": "",
                                    "maxlength": ""
                                },
                                {
                                    "key": "field_627bbfe4f6fa4",
                                    "label": "Text",
                                    "name": "text",
                                    "type": "wysiwyg",
                                    "instructions": "",
                                    "required": 0,
                                    "conditional_logic": 0,
                                    "wrapper": {
                                        "width": "",
                                        "class": "",
                                        "id": ""
                                    },
                                    "default_value": "",
                                    "tabs": "all",
                                    "toolbar": "basic",
                                    "media_upload": 0,
                                    "delay": 0
                                }
                            ]
                        }
                    ],
                    "min": "",
                    "max": ""
                },
                "layout_627bc279bbc8f": {
                    "key": "layout_627bc279bbc8f",
                    "name": "features",
                    "label": "Features",
                    "display": "block",
                    "sub_fields": [
                        {
                            "key": "field_627bc280bbc90",
                            "label": "Heading",
                            "name": "heading",
                            "type": "text",
                            "instructions": "",
                            "required": 0,
                            "conditional_logic": 0,
                            "wrapper": {
                                "width": "",
                                "class": "",
                                "id": ""
                            },
                            "default_value": "",
                            "placeholder": "",
                            "prepend": "",
                            "append": "",
                            "maxlength": ""
                        },
                        {
                            "key": "field_627bc287bbc91",
                            "label": "Text",
                            "name": "text",
                            "type": "textarea",
                            "instructions": "",
                            "required": 0,
                            "conditional_logic": 0,
                            "wrapper": {
                                "width": "",
                                "class": "",
                                "id": ""
                            },
                            "default_value": "",
                            "placeholder": "",
                            "maxlength": "",
                            "rows": 3,
                            "new_lines": ""
                        },
                        {
                            "key": "field_627bc28ebbc92",
                            "label": "Items",
                            "name": "items",
                            "type": "repeater",
                            "instructions": "",
                            "required": 0,
                            "conditional_logic": 0,
                            "wrapper": {
                                "width": "",
                                "class": "",
                                "id": ""
                            },
                            "collapsed": "field_627bc29abbc93",
                            "min": 0,
                            "max": 0,
                            "layout": "block",
                            "button_label": "Add Feature Block",
                            "sub_fields": [
                                {
                                    "key": "field_627bc29abbc93",
                                    "label": "Title",
                                    "name": "title",
                                    "type": "text",
                                    "instructions": "",
                                    "required": 1,
                                    "conditional_logic": 0,
                                    "wrapper": {
                                        "width": "",
                                        "class": "",
                                        "id": ""
                                    },
                                    "default_value": "",
                                    "placeholder": "",
                                    "prepend": "",
                                    "append": "",
                                    "maxlength": ""
                                },
                                {
                                    "key": "field_627bc29fbbc94",
                                    "label": "Text",
                                    "name": "text",
                                    "type": "textarea",
                                    "instructions": "",
                                    "required": 1,
                                    "conditional_logic": 0,
                                    "wrapper": {
                                        "width": "",
                                        "class": "",
                                        "id": ""
                                    },
                                    "default_value": "",
                                    "placeholder": "",
                                    "maxlength": "",
                                    "rows": "",
                                    "new_lines": ""
                                },
                                {
                                    "key": "field_627bc2abbbc95",
                                    "label": "Include Image Modal",
                                    "name": "include_image_modal",
                                    "type": "true_false",
                                    "instructions": "",
                                    "required": 0,
                                    "conditional_logic": 0,
                                    "wrapper": {
                                        "width": "",
                                        "class": "",
                                        "id": ""
                                    },
                                    "message": "",
                                    "default_value": 0,
                                    "ui": 1,
                                    "ui_on_text": "",
                                    "ui_off_text": ""
                                },
                                {
                                    "key": "field_627bc2babbc96",
                                    "label": "Example Image",
                                    "name": "example_image",
                                    "type": "image",
                                    "instructions": "",
                                    "required": 0,
                                    "conditional_logic": 0,
                                    "wrapper": {
                                        "width": "",
                                        "class": "",
                                        "id": ""
                                    },
                                    "return_format": "array",
                                    "preview_size": "medium",
                                    "library": "all",
                                    "min_width": "",
                                    "min_height": "",
                                    "min_size": "",
                                    "max_width": "",
                                    "max_height": "",
                                    "max_size": "",
                                    "mime_types": ""
                                }
                            ]
                        }
                    ],
                    "min": "",
                    "max": ""
                },
                "layout_62ff99b1fac9f": {
                    "key": "layout_62ff99b1fac9f",
                    "name": "pricing",
                    "label": "Pricing",
                    "display": "block",
                    "sub_fields": [
                        {
                            "key": "field_62ff99b6faca0",
                            "label": "Heading",
                            "name": "heading",
                            "type": "text",
                            "instructions": "",
                            "required": 0,
                            "conditional_logic": 0,
                            "wrapper": {
                                "width": "",
                                "class": "",
                                "id": ""
                            },
                            "default_value": "",
                            "placeholder": "",
                            "prepend": "",
                            "append": "",
                            "maxlength": ""
                        },
                        {
                            "key": "field_62ff99bffaca1",
                            "label": "Bold Text (Column 1)",
                            "name": "bold_text_column_1",
                            "type": "text",
                            "instructions": "",
                            "required": 0,
                            "conditional_logic": 0,
                            "wrapper": {
                                "width": "",
                                "class": "",
                                "id": ""
                            },
                            "default_value": "",
                            "placeholder": "",
                            "prepend": "",
                            "append": "",
                            "maxlength": ""
                        },
                        {
                            "key": "field_62ff99c9faca2",
                            "label": "Text (Column 1)",
                            "name": "pricing_text_one",
                            "type": "textarea",
                            "instructions": "",
                            "required": 0,
                            "conditional_logic": 0,
                            "wrapper": {
                                "width": "50",
                                "class": "",
                                "id": ""
                            },
                            "default_value": "",
                            "placeholder": "",
                            "maxlength": "",
                            "rows": 3,
                            "new_lines": "br"
                        },
                        {
                            "key": "field_62ff99dffaca3",
                            "label": "Text (Column 2)",
                            "name": "pricing_text_two",
                            "type": "textarea",
                            "instructions": "",
                            "required": 0,
                            "conditional_logic": 0,
                            "wrapper": {
                                "width": "50",
                                "class": "",
                                "id": ""
                            },
                            "default_value": "",
                            "placeholder": "",
                            "maxlength": "",
                            "rows": 3,
                            "new_lines": "br"
                        },
                        {
                            "key": "field_62ff9a663e1f3",
                            "label": "Items",
                            "name": "items",
                            "type": "repeater",
                            "instructions": "",
                            "required": 0,
                            "conditional_logic": 0,
                            "wrapper": {
                                "width": "",
                                "class": "",
                                "id": ""
                            },
                            "collapsed": "field_607d495e31f71",
                            "min": 0,
                            "max": 0,
                            "layout": "row",
                            "button_label": "Add Pricing Package",
                            "sub_fields": [
                                {
                                    "key": "field_62ff9a663e1f4",
                                    "label": "Title",
                                    "name": "title",
                                    "type": "text",
                                    "instructions": "",
                                    "required": 0,
                                    "conditional_logic": 0,
                                    "wrapper": {
                                        "width": "",
                                        "class": "",
                                        "id": ""
                                    },
                                    "default_value": "",
                                    "placeholder": "e.g. Standard",
                                    "prepend": "",
                                    "append": "",
                                    "maxlength": ""
                                },
                                {
                                    "key": "field_62ff9a663e1f5",
                                    "label": "Prices",
                                    "name": "prices",
                                    "type": "group",
                                    "instructions": "",
                                    "required": 0,
                                    "conditional_logic": 0,
                                    "wrapper": {
                                        "width": "",
                                        "class": "",
                                        "id": ""
                                    },
                                    "layout": "table",
                                    "sub_fields": [
                                        {
                                            "key": "field_62ff9a663e1f6",
                                            "label": "Yearly (£GBP)",
                                            "name": "year_gbp",
                                            "type": "number",
                                            "instructions": "",
                                            "required": 0,
                                            "conditional_logic": 0,
                                            "wrapper": {
                                                "width": "",
                                                "class": "",
                                                "id": ""
                                            },
                                            "default_value": "",
                                            "placeholder": "",
                                            "prepend": "",
                                            "append": "",
                                            "min": "",
                                            "max": "",
                                            "step": ""
                                        },
                                        {
                                            "key": "field_62ff9a663e1f7",
                                            "label": "Yearly ($USD)",
                                            "name": "year_usd",
                                            "type": "number",
                                            "instructions": "",
                                            "required": 0,
                                            "conditional_logic": 0,
                                            "wrapper": {
                                                "width": "",
                                                "class": "",
                                                "id": ""
                                            },
                                            "default_value": "",
                                            "placeholder": "",
                                            "prepend": "",
                                            "append": "",
                                            "min": "",
                                            "max": "",
                                            "step": ""
                                        },
                                        {
                                            "key": "field_62ff9a663e1f8",
                                            "label": "Yearly (€EUR)",
                                            "name": "year_eur",
                                            "type": "number",
                                            "instructions": "",
                                            "required": 0,
                                            "conditional_logic": 0,
                                            "wrapper": {
                                                "width": "",
                                                "class": "",
                                                "id": ""
                                            },
                                            "default_value": "",
                                            "placeholder": "",
                                            "prepend": "",
                                            "append": "",
                                            "min": "",
                                            "max": "",
                                            "step": ""
                                        },
                                        {
                                            "key": "field_62ff9a663e1f9",
                                            "label": "Monthly (£GBP)",
                                            "name": "monthly_gbp",
                                            "type": "number",
                                            "instructions": "",
                                            "required": 0,
                                            "conditional_logic": 0,
                                            "wrapper": {
                                                "width": "",
                                                "class": "",
                                                "id": ""
                                            },
                                            "default_value": "",
                                            "placeholder": "",
                                            "prepend": "",
                                            "append": "",
                                            "min": "",
                                            "max": "",
                                            "step": ""
                                        },
                                        {
                                            "key": "field_62ff9a663e1fa",
                                            "label": "Monthly ($USD)",
                                            "name": "monthly_usd",
                                            "type": "number",
                                            "instructions": "",
                                            "required": 0,
                                            "conditional_logic": 0,
                                            "wrapper": {
                                                "width": "",
                                                "class": "",
                                                "id": ""
                                            },
                                            "default_value": "",
                                            "placeholder": "",
                                            "prepend": "",
                                            "append": "",
                                            "min": "",
                                            "max": "",
                                            "step": ""
                                        },
                                        {
                                            "key": "field_62ff9a663e1fb",
                                            "label": "Monthly (€EUR)",
                                            "name": "monthly_eur",
                                            "type": "number",
                                            "instructions": "",
                                            "required": 0,
                                            "conditional_logic": 0,
                                            "wrapper": {
                                                "width": "",
                                                "class": "",
                                                "id": ""
                                            },
                                            "default_value": "",
                                            "placeholder": "",
                                            "prepend": "",
                                            "append": "",
                                            "min": "",
                                            "max": "",
                                            "step": ""
                                        },
                                        {
                                            "key": "field_62ff9a663e1fc",
                                            "label": "Mark all as 'TBC'",
                                            "name": "tbc",
                                            "type": "true_false",
                                            "instructions": "",
                                            "required": 0,
                                            "conditional_logic": 0,
                                            "wrapper": {
                                                "width": "",
                                                "class": "",
                                                "id": ""
                                            },
                                            "message": "",
                                            "default_value": 0,
                                            "ui": 0,
                                            "ui_on_text": "",
                                            "ui_off_text": ""
                                        }
                                    ]
                                },
                                {
                                    "key": "field_62ff9a663e1fd",
                                    "label": "Most Popular",
                                    "name": "most_popular",
                                    "type": "checkbox",
                                    "instructions": "",
                                    "required": 0,
                                    "conditional_logic": 0,
                                    "wrapper": {
                                        "width": "",
                                        "class": "",
                                        "id": ""
                                    },
                                    "choices": {
                                        "yes": "Select this as Most Popular"
                                    },
                                    "allow_custom": 0,
                                    "save_custom": 0,
                                    "default_value": [],
                                    "layout": "horizontal",
                                    "toggle": 0,
                                    "return_format": "value"
                                },
                                {
                                    "key": "field_62ff9a663e1fe",
                                    "label": "Rows",
                                    "name": "rows",
                                    "type": "repeater",
                                    "instructions": "Rows that sit alongside the pricing columns",
                                    "required": 0,
                                    "conditional_logic": 0,
                                    "wrapper": {
                                        "width": "",
                                        "class": "",
                                        "id": ""
                                    },
                                    "collapsed": "",
                                    "min": 0,
                                    "max": 0,
                                    "layout": "block",
                                    "button_label": "Add Row",
                                    "sub_fields": [
                                        {
                                            "key": "field_62ff9a663e1ff",
                                            "label": "Icon or Text",
                                            "name": "type",
                                            "type": "button_group",
                                            "instructions": "",
                                            "required": 0,
                                            "conditional_logic": 0,
                                            "wrapper": {
                                                "width": "33.33",
                                                "class": "",
                                                "id": ""
                                            },
                                            "choices": {
                                                "icon": "Icon",
                                                "text": "Text"
                                            },
                                            "allow_null": 0,
                                            "default_value": "",
                                            "layout": "horizontal",
                                            "return_format": "value"
                                        },
                                        {
                                            "key": "field_62ff9a663e200",
                                            "label": "Text",
                                            "name": "text",
                                            "type": "textarea",
                                            "instructions": "",
                                            "required": 0,
                                            "conditional_logic": [
                                                [
                                                    {
                                                        "field": "field_62ff9a663e1ff",
                                                        "operator": "==",
                                                        "value": "text"
                                                    }
                                                ]
                                            ],
                                            "wrapper": {
                                                "width": "66.66",
                                                "class": "",
                                                "id": ""
                                            },
                                            "default_value": "",
                                            "placeholder": "",
                                            "maxlength": "",
                                            "rows": 2,
                                            "new_lines": ""
                                        },
                                        {
                                            "key": "field_62ff9a663e201",
                                            "label": "Icon",
                                            "name": "icon",
                                            "type": "button_group",
                                            "instructions": "",
                                            "required": 0,
                                            "conditional_logic": [
                                                [
                                                    {
                                                        "field": "field_62ff9a663e1ff",
                                                        "operator": "==",
                                                        "value": "icon"
                                                    }
                                                ]
                                            ],
                                            "wrapper": {
                                                "width": "66.66",
                                                "class": "",
                                                "id": ""
                                            },
                                            "choices": {
                                                "true": "✓",
                                                "false": "✕"
                                            },
                                            "allow_null": 0,
                                            "default_value": "",
                                            "layout": "horizontal",
                                            "return_format": "value"
                                        }
                                    ]
                                }
                            ]
                        },
                        {
                            "key": "field_62ffa4fca6715",
                            "label": "Row Titles",
                            "name": "pricing_rows",
                            "type": "repeater",
                            "instructions": "",
                            "required": 0,
                            "conditional_logic": 0,
                            "wrapper": {
                                "width": "",
                                "class": "",
                                "id": ""
                            },
                            "collapsed": "field_6290efa340355",
                            "min": 0,
                            "max": 0,
                            "layout": "block",
                            "button_label": "Add Product Row",
                            "sub_fields": [
                                {
                                    "key": "field_62ffa4fca6716",
                                    "label": "Title",
                                    "name": "title",
                                    "type": "text",
                                    "instructions": "",
                                    "required": 0,
                                    "conditional_logic": 0,
                                    "wrapper": {
                                        "width": "",
                                        "class": "",
                                        "id": ""
                                    },
                                    "default_value": "",
                                    "placeholder": "e.g. Actions",
                                    "prepend": "",
                                    "append": "",
                                    "maxlength": ""
                                },
                                {
                                    "key": "field_62ffa4fca6717",
                                    "label": "Subtitle",
                                    "name": "subtitle",
                                    "type": "text",
                                    "instructions": "",
                                    "required": 0,
                                    "conditional_logic": 0,
                                    "wrapper": {
                                        "width": "",
                                        "class": "",
                                        "id": ""
                                    },
                                    "default_value": "",
                                    "placeholder": "e.g. (per month)",
                                    "prepend": "",
                                    "append": "",
                                    "maxlength": ""
                                },
                                {
                                    "key": "field_62ffa4fca6718",
                                    "label": "Features",
                                    "name": "features",
                                    "type": "wysiwyg",
                                    "instructions": "",
                                    "required": 0,
                                    "conditional_logic": 0,
                                    "wrapper": {
                                        "width": "",
                                        "class": "",
                                        "id": ""
                                    },
                                    "default_value": "",
                                    "tabs": "all",
                                    "toolbar": "basic",
                                    "media_upload": 0,
                                    "delay": 0
                                },
                                {
                                    "key": "field_62ffa4fca6719",
                                    "label": "Link",
                                    "name": "link",
                                    "type": "link",
                                    "instructions": "",
                                    "required": 0,
                                    "conditional_logic": 0,
                                    "wrapper": {
                                        "width": "",
                                        "class": "",
                                        "id": ""
                                    },
                                    "return_format": "array"
                                }
                            ]
                        },
                        {
                            "key": "field_62ffa16e289af",
                            "label": "Highlighting Colour",
                            "name": "highlighting_colour",
                            "type": "color_picker",
                            "instructions": "",
                            "required": 0,
                            "conditional_logic": 0,
                            "wrapper": {
                                "width": "",
                                "class": "",
                                "id": ""
                            },
                            "default_value": ""
                        }
                    ],
                    "min": "",
                    "max": ""
                },
                "layout_63035fe25110e": {
                    "key": "layout_63035fe25110e",
                    "name": "video",
                    "label": "Video",
                    "display": "block",
                    "sub_fields": [
                        {
                            "key": "field_634e8452aa4ed",
                            "label": "Video Type",
                            "name": "video_type",
                            "type": "button_group",
                            "instructions": "",
                            "required": 0,
                            "conditional_logic": 0,
                            "wrapper": {
                                "width": "",
                                "class": "",
                                "id": ""
                            },
                            "choices": {
                                "file": "File",
                                "embed": "Vimeo & YouTube"
                            },
                            "allow_null": 0,
                            "default_value": "",
                            "layout": "horizontal",
                            "return_format": "value"
                        },
                        {
                            "key": "field_634e8469aa4ee",
                            "label": "Video File",
                            "name": "video_file",
                            "type": "file",
                            "instructions": "",
                            "required": 0,
                            "conditional_logic": [
                                [
                                    {
                                        "field": "field_634e8452aa4ed",
                                        "operator": "==",
                                        "value": "file"
                                    }
                                ]
                            ],
                            "wrapper": {
                                "width": "",
                                "class": "",
                                "id": ""
                            },
                            "return_format": "array",
                            "library": "all",
                            "min_size": "",
                            "max_size": "",
                            "mime_types": ""
                        },
                        {
                            "key": "field_63035fa4466ad",
                            "label": "Video Embed",
                            "name": "video_embed",
                            "type": "oembed",
                            "instructions": "",
                            "required": 0,
                            "conditional_logic": [
                                [
                                    {
                                        "field": "field_634e8452aa4ed",
                                        "operator": "==",
                                        "value": "embed"
                                    }
                                ]
                            ],
                            "wrapper": {
                                "width": "",
                                "class": "",
                                "id": ""
                            },
                            "width": "",
                            "height": ""
                        },
                        {
                            "key": "field_63035fa7466ae",
                            "label": "Video Header",
                            "name": "video_header",
                            "type": "text",
                            "instructions": "",
                            "required": 0,
                            "conditional_logic": 0,
                            "wrapper": {
                                "width": "",
                                "class": "",
                                "id": ""
                            },
                            "default_value": "",
                            "placeholder": "",
                            "prepend": "",
                            "append": "",
                            "maxlength": ""
                        }
                    ],
                    "min": "",
                    "max": ""
                }
            },
            "button_label": "Add Module",
            "min": "",
            "max": ""
        }
    ],
    "location": [
        [
            {
                "param": "page_template",
                "operator": "==",
                "value": "template-builder.php"
            }
        ]
    ],
    "menu_order": 0,
    "position": "acf_after_title",
    "style": "seamless",
    "label_placement": "top",
    "instruction_placement": "label",
    "hide_on_screen": [
        "the_content"
    ],
    "active": true,
    "description": "",
    "modified": 1666090115
}